Name,WeightClassKg,Division,Sex,Best3SquatKg,Best3BenchKg,Best3DeadliftKg,TotalKg,Event,Equipment,Place
Steve Snyder #1,52,Open,M,182.5,102.5,205,490,SBD,Single-ply,1
J. Ryan,56,Masters 40-44,M,87.5,45,120,252.5,SBD,Single-ply,1
K. Kichilinsky,56,Submasters,M,110,67.5,125,302.5,SBD,Single-ply,1
M. DeFoor,56,Open,M,77.5,55,110,242.5,SBD,Single-ply,2
J. Gosling,56,Open,M,187.5,125,167.5,480,SBD,Single-ply,1
K. Macik,56,Teen 18-19,M,142.5,82.5,182.5,407.5,SBD,Single-ply,1
L. Ozark,60,Open,M,25,67.5,25,117.5,SBD,Single-ply,1
C. Traver,60,Masters 40-44,M,105,57.5,137.5,300,SBD,Single-ply,1
I. Bonacci,67.5,Masters 50-54,M,170,100,187.5,457.5,SBD,Single-ply,1
P. Romanako,67.5,Open,M,195,120,212.5,527.5,SBD,Single-ply,1
P. Romanako,67.5,Lifetime,M,195,120,212.5,527.5,SBD,Single-ply,1
L. Gildersleeve,67.5,Teen 16-17,M,67.5,40,90,197.5,SBD,Single-ply,1
A. Knute,75,Teen 14-15,M,137.5,75,125,337.5,SBD,Single-ply,1
J. Sweger,75,Teen 16-17,M,145,125,145,415,SBD,Single-ply,1
G. DePasquale,75,Juniors 20-23,M,227.5,125,245,597.5,SBD,Single-ply,1
J. Thek,75,Juniors 20-23,M,190,140,230,560,SBD,Single-ply,2
M. Neveu,75,Submasters,M,155,125,205,485,SBD,Single-ply,1
J. Bracta,75,Open,M,247.5,167.5,282,697,SBD,Single-ply,1
T. Favala,75,Open,M,217.5,142.5,245,605,SBD,Single-ply,2
C. Cavalier,82.5,Teen 14-15,M,170,132.5,197.5,500,SBD,Single-ply,1
B. Aulisio,82.5,Teen 16-17,M,200,147.5,197.5,545,SBD,Single-ply,1
A. Rotell,82.5,Teen 16-17,M,137.5,105,195,437.5,SBD,Single-ply,2
E. Kraiz,82.5,Juniors 20-23,M,235,145,242.5,622.5,SBD,Single-ply,1
C. Carpenter,82.5,Juniors 20-23,M,200,110,232.5,542.5,SBD,Single-ply,2
S. Sobuto,82.5,Juniors 20-23,M,205,117.5,210,532.5,SBD,Single-ply,3
Robert Wagner,82.5,Open,M,320,192.5,302.5,815,SBD,Single-ply,1
R. Toole,82.5,Open,M,252.5,185,247.5,685,SBD,Single-ply,2
R. Mitchell,82.5,Open,M,137.5,125,160,422.5,SBD,Single-ply,3
K. Strohecker,82.5,Open,M,147.5,105,170,422.5,SBD,Single-ply,4
J. Pezzuti,82.5,Submasters,M,155,105,172.5,432.5,SBD,Single-ply,1
D. Banik,82.5,Masters 40-44,M,200,125,245,570,SBD,Single-ply,1
J. Nealis,82.5,Masters 45-49,M,160,145,195,500,SBD,Single-ply,1
H. Elsasser,82.5,Masters 45-49,M,160,110,200,470,SBD,Single-ply,2
D. Malkin,82.5,Masters 50-54,M,187.5,107.5,187.5,482.5,SBD,Single-ply,1
T. Lloyd,82.5,Submasters,M,67.5,45,87.5,200,SBD,Single-ply,2
S. Christman,90,Teen 18-19,M,210,155,197.5,562.5,SBD,Single-ply,1
R. Walker,90,Juniors 20-23,M,187.5,135,242.5,565,SBD,Single-ply,1
J. McDowell,90,Open,M,255,172.5,290,717.5,SBD,Single-ply,1
T. Groman,90,Open,M,250,140,277.5,667.5,SBD,Single-ply,2
R. Eckhari,90,Open,M,212.5,157.5,227.5,597.5,SBD,Single-ply,4
M. Shefler,90,Open,M,205,140,212.5,557.5,SBD,Single-ply,6
T. Groman,90,Open,M,250,140,277.5,667.5,SBD,Single-ply,3
R. Eckhari,90,Open,M,212.5,157.5,227.5,597.5,SBD,Single-ply,5
M. Shefler,90,Open,M,205,140,212.5,557.5,SBD,Single-ply,7
J. Breese,90,Open,M,175,135,235,545,SBD,Single-ply,8
J. McDowell,90,Masters 40-44,M,255,172.5,290,717.5,SBD,Single-ply,1
A. Bolden,90,Masters 50-54,M,215,115,205,535,SBD,Single-ply,1
A. Wurz,90,Masters 65-69,M,160,110,170,440,SBD,Single-ply,1
R. Krukowski,90,Masters 40-44,M,227.5,140,192,559.5,SBD,Single-ply,2
R. Krukowski,90,Police/Fire,M,227.5,140,192,559.5,SBD,Single-ply,1
S. Green,100,Teen 16-17,M,227.5,155,187.5,570,SBD,Single-ply,1
E. Kline,100,Teen 16-17,M,160,97.5,185,442.5,SBD,Single-ply,2
C. Draper,100,Juniors 20-23,M,250,147.5,227.5,625,SBD,Single-ply,1
J. DeFoor,100,Open,M,285,200,287.5,772.5,SBD,Single-ply,1
R. McDonnell,100,Open,M,287.5,187.5,275,750,SBD,Single-ply,2
J. Hisch,100,Open,M,272.5,197.5,275,745,SBD,Single-ply,3
J. Rizzuto,100,Open,M,287.5,175,237.5,700,SBD,Single-ply,4
A. Faulkner,100,Open,M,245,195,240,680,SBD,Single-ply,5
D. Lewis,100,Open,M,205,157.5,250,612.5,SBD,Single-ply,6
K. Michaels,100,Open,M,215,125,237.5,577.5,SBD,Single-ply,7
E. Kline,100,Open,M,160,97.5,185,442.5,SBD,Single-ply,8
E. Kline,100,Lifetime,M,160,97.5,185,442.5,SBD,Single-ply,1
J. Holbert,100,Police/Fire,M,230,180,230,640,SBD,Single-ply,1
T.Skelly,100,Police/Fire,M,240,157.5,207.5,605,SBD,Single-ply,2
Willie Croner,110,Open,M,257.5,145,240,642.5,SBD,Single-ply,3
P. Johnson,110,Open,M,310,217.5,272,799.5,SBD,Single-ply,1
G. Keiser,110,Open,M,245,170,227.5,642.5,SBD,Single-ply,4
G. Keiser,110,Lifetime,M,245,170,227.5,642.5,SBD,Single-ply,1
M. Human,110,Masters 40-44,M,257.5,145,240,642.5,SBD,Single-ply,1
D. Mozetski,110,Police/Fire,M,255,182.5,252.5,690,SBD,Single-ply,1
B. DiBella,110,Open,M,250,152.5,282.5,685,SBD,Single-ply,2
K. Eckrote,125,Teen 16-17,M,137.5,110,167.5,415,SBD,Single-ply,1
J. Bekanich,125,Teen 18-19,M,65,202.5,150,417.5,SBD,Single-ply,2
T. Adamitis,125,Teen 18-19,M,170,102.5,207.5,480,SBD,Single-ply,1
J. Dundon,125,Open,M,330,210,277.5,817.5,SBD,Single-ply,1
S. Cosgrove,125,Open,M,322.5,182.5,285,790,SBD,Single-ply,2
S. Mitchell,125,Open,M,275,180,282.5,737.5,SBD,Single-ply,3
J. Lee,125,Open,M,282.5,157.5,280,720,SBD,Single-ply,4
J. Lee,125,Lifetime,M,282.5,157.5,280,720,SBD,Single-ply,1
R. Thomas #7,125,Submasters,M,195,132.5,205,532.5,SBD,Single-ply,1
A. Stasko,125,Masters 40-44,M,245,160,277.5,682.5,SBD,Single-ply,1
C. Eckroth,145,Open,M,272.5,185,300,757.5,SBD,Single-ply,1
C. Eckroth,145,Lifetime,M,272.5,185,300,757.5,SBD,Single-ply,1
