Division,WeightClassKg,Place,Name,Team,BodyweightKg,Best3SquatKg,Best3BenchKg,Best3DeadliftKg,TotalKg,Equipment,Event,Sex
Boys,51.71,1,BJ Stidham,Gladewater Sabine,51.53,183.7,97.52,190.51,471.74,Single-ply,SBD,M
Boys,51.71,DQ,Heath Schlottman,Mount Vernon,47.17,90.72,,,,Single-ply,SBD,M
Boys,55.79,1,Kile Stripland,Gladewater Sabine,55.61,115.67,74.84,117.93,308.44,Single-ply,SBD,M
Boys,55.79,2,Gavin Rhea,Simms Bowie,54.07,113.4,65.77,127.01,306.17,Single-ply,SBD,M
Boys,59.87,DQ,Antonio McAdams,Kerens,57.15,,,,,Single-ply,SBD,M
Boys,67.13,1,Alec Morris,Gladewater Sabine,65.68,158.76,102.06,154.22,415.04,Single-ply,SBD,M
Boys,67.13,2,Jose Arzola,Mount Vernon,67.04,156.49,95.25,149.69,401.43,Single-ply,SBD,M
Boys,67.13,3,Brian Vaca,Longview Spring Hill,63.41,149.69,92.99,149.69,392.36,Single-ply,SBD,M
Boys,67.13,4,DeAndre Doss,Diana New Diana,67.04,142.88,74.84,129.27,347,Single-ply,SBD,M
Boys,67.13,5,Austin Roberts,Simms Bowie,63.78,131.54,74.84,133.81,340.19,Single-ply,SBD,M
Boys,67.13,6,Nathan Huckabay,Gladewater Union Grove,64.86,122.47,83.91,120.2,326.59,Single-ply,SBD,M
Boys,67.13,DQ,Zach Henry,Longview Spring Hill,61.23,142.88,88.45,,,Single-ply,SBD,M
Boys,67.13,DQ,Vincent Miller,Gladewater Union Grove,65.32,140.61,,,,Single-ply,SBD,M
Boys,67.13,DQ,Logan Rust,Gladewater Union Grove,63.96,127.01,,,,Single-ply,SBD,M
Boys,67.13,DQ,River Chaney,Quitman,65.59,,,,,Single-ply,SBD,M
Boys,67.13,DQ,Silvano Castillo,Quitman,67.04,,,,,Single-ply,SBD,M
Boys,67.13,DQ,Dayne Redmon,White Oak,66.22,147.42,,,,Single-ply,SBD,M
Boys,67.13,DQ,Trayson Wright,Overton,65.95,,,,,Single-ply,SBD,M
Boys,74.84,1,Daniel Fernandez,Kerens,74.48,190.51,122.47,167.83,480.81,Single-ply,SBD,M
Boys,74.84,2,Damien Bryant,Kerens,72.57,170.1,97.52,147.42,415.04,Single-ply,SBD,M
Boys,74.84,3,Zander Crittenden,Laird Hill Leveretts Chapel,68.04,136.08,102.06,156.49,394.63,Single-ply,SBD,M
Boys,74.84,4,Wyatt Hightower,Quitman,69.67,151.95,92.99,142.88,387.82,Single-ply,SBD,M
Boys,74.84,5,Brenner Ratzlaff,White Oak,71.58,147.42,88.45,142.88,378.75,Single-ply,SBD,M
Boys,74.84,6,Justin Jackson,Simms Bowie,71.67,120.2,65.77,138.35,324.32,Single-ply,SBD,M
Boys,74.84,7,Blade Green,Simms Bowie,72.57,129.27,61.23,129.27,319.78,Single-ply,SBD,M
Boys,74.84,8,Jonathon Peery,Laird Hill Leveretts Chapel,72.85,104.33,65.77,122.47,292.57,Single-ply,SBD,M
Boys,74.84,DQ,Nic Pugh,Kerens,71.94,,,,,Single-ply,SBD,M
Boys,74.84,DQ,Eliseos Turcios,Quitman,70.58,,,,,Single-ply,SBD,M
Boys,74.84,DQ,Branson Hays,White Oak,67.86,138.35,,,,Single-ply,SBD,M
Boys,74.84,DQ,Kaden Finney,Mount Vernon,71.58,92.99,,,,Single-ply,SBD,M
Boys,74.84,DQ,Joshua Freeman,Mount Vernon,72.76,142.88,,,,Single-ply,SBD,M
Boys,74.84,DQ,Anders Sundquist,Kerens,74.03,151.95,,,,Single-ply,SBD,M
Boys,82.1,1,Zane Freeman,Diana New Diana,79.47,208.65,122.47,217.72,548.85,Single-ply,SBD,M
Boys,82.1,2,Koby Phelps,Kerens,80.83,185.97,111.13,185.97,483.08,Single-ply,SBD,M
Boys,82.1,3,Michael Daudpota,Van,82.01,170.1,115.67,167.83,453.59,Single-ply,SBD,M
Boys,82.1,4,Kole Stripland,Gladewater Sabine,77.93,167.83,92.99,158.76,419.57,Single-ply,SBD,M
Boys,82.1,5,Jayden Wilson,Diana New Diana,82.01,156.49,104.33,147.42,408.23,Single-ply,SBD,M
Boys,82.1,6,Connor Ellis,Gladewater Union Grove,79.83,161.03,95.25,142.88,399.16,Single-ply,SBD,M
Boys,82.1,7,Rylie Redden,White Oak,79.2,131.54,88.45,142.88,362.87,Single-ply,SBD,M
Boys,82.1,8,Tyler Rodgers,Gladewater Union Grove,81.19,147.42,86.18,129.27,362.87,Single-ply,SBD,M
Boys,82.1,9,Hunter Cathey,Mount Vernon,77.29,113.4,77.11,142.88,333.39,Single-ply,SBD,M
Boys,82.1,10,Kaden Sutton,Simms Bowie,81.01,117.93,58.97,138.35,315.25,Single-ply,SBD,M
Boys,82.1,DQ,Daniel Wood,Gladewater Sabine,81.37,167.83,,,,Single-ply,SBD,M
Boys,82.1,DQ,Matthew Shankles,Longview Spring Hill,80.01,,,,,Single-ply,SBD,M
Boys,82.1,DQ,Dawson Blear,Laird Hill Leveretts Chapel,81.83,149.69,,,,Single-ply,SBD,M
Boys,89.81,1,Da'Michael Harvey,Kerens,89.18,260.82,151.95,260.82,673.58,Single-ply,SBD,M
Boys,89.81,2,Patrick Martinez,White Oak,87.54,226.8,136.08,249.48,612.35,Single-ply,SBD,M
Boys,89.81,3,Vaughn Bufkin,Longview Spring Hill,88.72,215.46,142.88,226.8,585.13,Single-ply,SBD,M
Boys,89.81,4,Michael Marrs,Longview Spring Hill,82.37,170.1,122.47,226.8,519.36,Single-ply,SBD,M
Boys,89.81,5,Dylan Dodson,Diana New Diana,84.64,210.92,111.13,185.97,508.02,Single-ply,SBD,M
Boys,89.81,6,Jeremy Peek,Quitman,89.54,188.24,108.86,204.12,501.22,Single-ply,SBD,M
Boys,89.81,7,Mauricio Herrera,Van,87.36,190.51,117.93,181.44,489.88,Single-ply,SBD,M
Boys,89.81,8,Dylan Bell,Gladewater Union Grove,89.72,174.63,115.67,163.29,453.59,Single-ply,SBD,M
Boys,89.81,9,Xander Reder,Mount Vernon,84.28,147.42,83.91,183.7,415.04,Single-ply,SBD,M
Boys,89.81,10,Brittin Pierce,Overton,88.99,147.42,102.06,142.88,392.36,Single-ply,SBD,M
Boys,89.81,11,Tommy Covington,White Oak,84.1,127.01,74.84,149.69,351.53,Single-ply,SBD,M
Boys,89.81,12,Austin Sagura,Mount Vernon,84.46,124.74,88.45,124.74,337.93,Single-ply,SBD,M
Boys,89.81,13,Taylor Wilson,Gladewater Sabine,87.91,108.86,88.45,113.4,310.71,Single-ply,SBD,M
Boys,89.81,DQ,Logan Smith,White Oak,83.28,,,,,Single-ply,SBD,M
Boys,89.81,DQ,Brendan Mendoza,White Oak,85.91,149.69,,,,Single-ply,SBD,M
Boys,89.81,DQ,James Smith,Simms Bowie,84.73,120.2,,,,Single-ply,SBD,M
Boys,89.81,DQ,Brendyn Miller,Quitman,84.01,,,,,Single-ply,SBD,M
Boys,99.79,1,Ty Watts,Simms Bowie,97.52,249.48,154.22,233.6,637.3,Single-ply,SBD,M
Boys,99.79,2,Dustin Torres,Overton,91.53,206.38,113.4,183.7,503.49,Single-ply,SBD,M
Boys,99.79,3,Jaiden Turner,White Oak,95.8,165.56,74.84,215.46,455.86,Single-ply,SBD,M
Boys,99.79,4,Joel Martinez,Mount Vernon,96.71,158.76,113.4,181.44,453.59,Single-ply,SBD,M
Boys,99.79,5,Brandon Obenoskey,Simms Bowie,98.25,154.22,95.25,176.9,426.38,Single-ply,SBD,M
Boys,99.79,6,Keylan Easley,Diana New Diana,91.53,138.35,88.45,161.03,387.82,Single-ply,SBD,M
Boys,99.79,7,Ethan Lum,Simms Bowie,97.43,142.88,90.72,145.15,378.75,Single-ply,SBD,M
Boys,99.79,DQ,Tyler Smith,White Oak,91.81,147.42,,,,Single-ply,SBD,M
Boys,99.79,DQ,Darren Brown,Laird Hill Leveretts Chapel,95.53,113.4,,,,Single-ply,SBD,M
Boys,109.77,1,Nathan Ferrell,Gladewater Union Grove,106.05,204.12,145.15,188.24,537.51,Single-ply,SBD,M
Boys,109.77,2,Jacob Kimbrough,Longview Spring Hill,108.59,206.38,106.59,188.24,501.22,Single-ply,SBD,M
Boys,109.77,3,Jj Barrera,Winona,103.24,192.78,102.06,197.31,492.15,Single-ply,SBD,M
Boys,109.77,4,Brandon Krenek,Longview Spring Hill,103.78,188.24,111.13,176.9,476.27,Single-ply,SBD,M
Boys,109.77,5,Tony Natera,Longview Spring Hill,109.32,165.56,88.45,213.19,467.2,Single-ply,SBD,M
Boys,109.77,6,Luke Ummel,White Oak,102.24,163.29,90.72,165.56,419.57,Single-ply,SBD,M
Boys,109.77,7,Omar Hernandez,Van,104.42,165.56,83.91,163.29,412.77,Single-ply,SBD,M
Boys,109.77,DQ,Justin Pomykal,Gladewater Sabine,102.51,90.72,,,,Single-ply,SBD,M
Boys,109.77,DQ,Hunter Huggins,Quitman,108.59,,,,,Single-ply,SBD,M
Boys,109.77,DQ,D'Artagnan Gomez,Overton,106.5,136.08,,,,Single-ply,SBD,M
Boys,124.74,1,Whitt Rogers,Simms Bowie,118.93,249.48,99.79,197.31,546.58,Single-ply,SBD,M
Boys,124.74,2,Ian Stewart,Simms Bowie,119.02,215.46,108.86,195.04,519.36,Single-ply,SBD,M
Boys,124.74,3,Colby Bowles,Longview Spring Hill,122.11,190.51,90.72,181.44,462.66,Single-ply,SBD,M
Boys,124.74,4,Trevan Wright,Overton,120.66,206.38,92.99,142.88,442.25,Single-ply,SBD,M
Boys,124.74,5,Michael Dancer,Mount Vernon,112.22,170.1,81.65,142.88,394.63,Single-ply,SBD,M
Boys,124.74+,1,Lucas Stephenson,Simms Bowie,142.79,292.57,140.61,226.8,659.98,Single-ply,SBD,M
Boys,124.74+,2,Carson Manasse,Longview Spring Hill,129.73,238.14,147.42,247.21,632.76,Single-ply,SBD,M
Boys,124.74+,3,Jason Lazaro,Overton,133.72,210.92,106.59,183.7,501.22,Single-ply,SBD,M
Boys,124.74+,4,Quiton Johnson,Mount Vernon,131.81,181.44,106.59,204.12,492.15,Single-ply,SBD,M
