Division,WeightClassKg,Place,Name,Team,BodyweightKg,Best3SquatKg,Best3BenchKg,Best3DeadliftKg,TotalKg,Equipment,Event,Sex
Boys,51.71,1,Braden Fears,White Oak,49.99,106.59,68.04,120.2,294.84,Single-ply,SBD,M
Boys,51.71,2,Jacyrin Coats,Marshall,51.53,106.59,45.36,127.01,278.96,Single-ply,SBD,M
Boys,51.71,3,Devin Thompson,Gladewater Sabine,51.53,104.33,52.16,115.67,272.16,Single-ply,SBD,M
Boys,51.71,4,Lucas Edwards,Mount Vernon,51.26,95.25,47.63,111.13,254.01,Single-ply,SBD,M
Boys,51.71,5,Craig Ballew,Overton,50.53,102.06,54.43,92.99,249.48,Single-ply,SBD,M
Boys,59.87,1,Riley Slocum,Longview Pine Tree,55.97,145.15,88.45,170.1,403.7,Single-ply,SBD,M
Boys,55.79,2,Kevin Chavez,Laird Hill Leveretts Chapel,54.25,129.27,65.77,129.27,324.32,Single-ply,SBD,M
Boys,55.79,DQ,Ethan Hoops,Eustace,55.61,133.81,,,,Single-ply,SBD,M
Boys,59.87,1,Camron King,Marshall,59.24,195.04,81.65,188.24,464.93,Single-ply,SBD,M
Boys,59.87,2,JaCorey Mitchell,Marshall,59.78,167.83,86.18,167.83,421.84,Single-ply,SBD,M
Boys,59.87,3,Kyler Cooper,Texarkana Pleasant Grove,59.69,138.35,102.06,167.83,408.23,Single-ply,SBD,M
Boys,67.13,4,Noah Carver,Mount Vernon,60.06,154.22,88.45,163.29,405.97,Single-ply,SBD,M
Boys,67.13,5,Caleb Bush,Elysian Fields,60.06,147.42,86.18,165.56,399.16,Single-ply,SBD,M
Boys,59.87,6,Jackson Kennedy,Texarkana Pleasant Grove,58.6,136.08,104.33,133.81,374.21,Single-ply,SBD,M
Boys,59.87,7,Gilbert Garcia,Longview Spring Hill,57.61,142.88,81.65,138.35,362.87,Single-ply,SBD,M
Boys,59.87,8,Chris Dixon,Longview,56.61,131.54,74.84,154.22,360.61,Single-ply,SBD,M
Boys,59.87,9,Tramaine Butler,Marshall,57.97,138.35,74.84,145.15,358.34,Single-ply,SBD,M
Boys,59.87,10,Jeb Dixon,Elysian Fields,58.69,129.27,63.5,154.22,347,Single-ply,SBD,M
Boys,59.87,11,Colbey Cox,Gladewater Union Grove,59.24,99.79,49.9,113.4,263.08,Single-ply,SBD,M
Boys,59.87,12,Ethan Robsinson,New London West Rusk,56.93,88.45,47.63,106.59,242.67,Single-ply,SBD,M
Boys,74.84,1,Jared Scott,Texarkana Pleasant Grove,67.31,183.7,102.06,190.51,476.27,Single-ply,SBD,M
Boys,67.13,2,Marcus Piroutek,Longview,65.5,181.44,113.4,179.17,474,Single-ply,SBD,M
Boys,67.13,3,Ethan Wagner,Texarkana Pleasant Grove,64.41,163.29,97.52,181.44,442.25,Single-ply,SBD,M
Boys,67.13,4,Kameron Smith,Big Sandy,64.59,154.22,111.13,156.49,421.84,Single-ply,SBD,M
Boys,74.84,5,Casey Mccmullen,Elysian Fields,67.22,147.42,90.72,183.7,421.84,Single-ply,SBD,M
Boys,67.13,6,Carlos Camacho,White Oak,64.41,145.15,95.25,154.22,394.63,Single-ply,SBD,M
Boys,67.13,7,Gustavo Arango,Mineola,66.86,151.95,86.18,149.69,387.82,Single-ply,SBD,M
Boys,67.13,8,Stone Crisp,Elysian Fields,62.23,136.08,90.72,158.76,385.55,Single-ply,SBD,M
Boys,67.13,9,Kris Cooper,Longview,62.87,131.54,77.11,154.22,362.87,Single-ply,SBD,M
Boys,67.13,10,Christin Colby,Gladewater Union Grove,64.59,124.74,83.91,133.81,342.46,Single-ply,SBD,M
Boys,67.13,11,Peyton Cooper,Elysian Fields,63.32,120.2,79.38,138.35,337.93,Single-ply,SBD,M
Boys,67.13,12,Hunter Norris,Eustace,65.41,113.4,74.84,149.69,337.93,Single-ply,SBD,M
Boys,74.84,1,D'Crayvan Polk,Longview,71.21,190.51,104.33,197.31,492.15,Single-ply,SBD,M
Boys,74.84,2,Justin Griffin,Eustace,70.22,195.04,115.67,179.17,489.88,Single-ply,SBD,M
Boys,74.84,3,Quentin Parks,Eustace,72.21,183.7,102.06,188.24,474,Single-ply,SBD,M
Boys,74.84,4,Christian Johnson,Longview Spring Hill,71.67,181.44,99.79,176.9,458.13,Single-ply,SBD,M
Boys,74.84,5,Terry Floyd,Gladewater,73.39,170.1,92.99,192.78,455.86,Single-ply,SBD,M
Boys,74.84,6,Devin Burns,Texarkana Pleasant Grove,73.03,170.1,99.79,181.44,451.32,Single-ply,SBD,M
Boys,74.84,7,Bryston Oliver,Gladewater,74.75,181.44,81.65,181.44,444.52,Single-ply,SBD,M
Boys,74.84,8,Dustin Harrison,White Oak,72.48,142.88,104.33,190.51,437.72,Single-ply,SBD,M
Boys,74.84,9,Logan Elmore,Ore City,73.21,149.69,108.86,172.37,430.91,Single-ply,SBD,M
Boys,74.84,10,Kyle Williams,Big Sandy,68.4,158.76,79.38,181.44,419.57,Single-ply,SBD,M
Boys,74.84,11,Zach Cooke,New London West Rusk,73.39,158.76,97.52,147.42,403.7,Single-ply,SBD,M
Boys,74.84,12,Isiah Richardson,Longview Pine Tree,73.03,138.35,79.38,181.44,399.16,Single-ply,SBD,M
Boys,74.84,13,Jackson Jones,Henderson,69.4,133.81,90.72,165.56,390.09,Single-ply,SBD,M
Boys,74.84,14,Justiss Dudley,Elysian Fields,73.57,138.35,79.38,140.61,358.34,Single-ply,SBD,M
Boys,82.1,15,Noah Tipton,Longview Spring Hill,75.02,136.08,72.57,147.42,356.07,Single-ply,SBD,M
Boys,74.84,16,Noah Van Blarcum,White Oak,68.67,113.4,65.77,117.93,297.1,Single-ply,SBD,M
Boys,74.84,DQ,Dustin Coleman,Ore City,69.94,,,,,Single-ply,SBD,M
Boys,74.84,DQ,Shawn Johnson,Gladewater,72.76,,,,,Single-ply,SBD,M
Boys,82.1,DQ,Dante Byerly,Laird Hill Leveretts Chapel,74.93,,,,,Single-ply,SBD,M
Boys,89.81,1,Patrick Hoffman,Mount Vernon,82.19,201.85,127.01,201.85,530.7,Single-ply,SBD,M
Boys,82.1,2,Quay Ward,Longview Pine Tree,82.1,192.78,138.35,197.31,528.44,Single-ply,SBD,M
Boys,82.1,3,Micah Brantley,Gladewater Union Grove,81.19,183.7,120.2,199.58,503.49,Single-ply,SBD,M
Boys,82.1,4,Zackary Graham,Henderson,79.38,179.17,102.06,183.7,464.93,Single-ply,SBD,M
Boys,82.1,5,Richard Sanchez,Laird Hill Leveretts Chapel,82.1,179.17,102.06,163.29,444.52,Single-ply,SBD,M
Boys,82.1,DQ,Austin Aaron,Hawkins,79.38,,,,,Single-ply,SBD,M
Boys,82.1,DQ,Keenan Hargest,Eustace,81.74,,,,,Single-ply,SBD,M
Boys,82.1,DQ,Preston Ellis,Beckville,76.84,,,,,Single-ply,SBD,M
Boys,89.81,1,Micahh Smith,Marshall,84.91,226.8,113.4,244.94,585.13,Single-ply,SBD,M
Boys,89.81,2,Bryan Gilliland,Longview,89.81,240.4,115.67,226.8,582.87,Single-ply,SBD,M
Boys,89.81,3,Drake Murry,Marshall,87.63,233.6,117.93,217.72,569.26,Single-ply,SBD,M
Boys,89.81,4,Jaylon Hardeman,Jefferson,87.91,229.06,124.74,201.85,555.65,Single-ply,SBD,M
Boys,89.81,5,Sterling Hauk,Longview Pine Tree,84.82,188.24,131.54,172.37,492.15,Single-ply,SBD,M
Boys,89.81,6,Kamrun Evans,Elysian Fields,86.36,165.56,97.52,190.51,453.59,Single-ply,SBD,M
Boys,89.81,7,Jacob Hurst,Mineola,88.36,158.76,106.59,165.56,430.91,Single-ply,SBD,M
Boys,89.81,8,Walter Schwoxer,Longview Spring Hill,88.09,158.76,99.79,156.49,415.04,Single-ply,SBD,M
Boys,89.81,9,Dylin Borden,Gladewater Union Grove,86.91,158.76,90.72,156.49,405.97,Single-ply,SBD,M
Boys,89.81,10,Sanjay Pokhrel,Texarkana Pleasant Grove,89.09,138.35,72.57,136.08,347,Single-ply,SBD,M
Boys,89.81,11,Caleb Freeman,Longview Spring Hill,85.73,113.4,56.7,56.7,226.8,Single-ply,SBD,M
Boys,89.81,DQ,Tony Burns,Mount Enterprise,88.99,226.8,,,,Single-ply,SBD,M
Boys,109.77,1,Anthony Washington,Marshall,99.88,254.01,117.93,258.55,630.49,Single-ply,SBD,M
Boys,99.79,2,Karbohn McAdoo,Longview,95.16,215.46,127.01,260.82,603.28,Single-ply,SBD,M
Boys,99.79,3,Grant Stansberry,Gladewater Sabine,91.81,231.33,136.08,226.8,594.21,Single-ply,SBD,M
Boys,99.79,4,Mikey Grubbs,Mount Enterprise,96.34,215.46,124.74,226.8,566.99,Single-ply,SBD,M
Boys,99.79,5,Keelin Munoz,White Oak,91.63,204.12,113.4,213.19,530.7,Single-ply,SBD,M
Boys,99.79,6,Wilfredo Valladares,Tyler,93.8,204.12,136.08,188.24,528.44,Single-ply,SBD,M
Boys,99.79,7,Mathew Davidson,New London West Rusk,99.16,215.46,106.59,204.12,526.17,Single-ply,SBD,M
Boys,99.79,8,Joseph Snodgrass,Texarkana Pleasant Grove,96.62,190.51,117.93,190.51,498.95,Single-ply,SBD,M
Boys,99.79,9,Nick Johnston,White Oak,97.43,197.31,106.59,174.63,478.54,Single-ply,SBD,M
Boys,99.79,10,Isaiah Tiner,Gladewater,94.53,158.76,102.06,170.1,430.91,Single-ply,SBD,M
Boys,99.79,11,Ian Throckmorton,Ore City,93.26,158.76,92.99,158.76,410.5,Single-ply,SBD,M
Boys,99.79,12,Josh Coleman,Ore City,95.35,181.44,83.91,127.01,392.36,Single-ply,SBD,M
Boys,99.79,13,Cole Slade,Texarkana Pleasant Grove,91.17,149.69,81.65,136.08,367.41,Single-ply,SBD,M
Boys,99.79,14,Jake Mulkey III,Longview Spring Hill,90.72,124.74,68.04,124.74,317.51,Single-ply,SBD,M
Boys,99.79,DQ,Brett Howell,New London West Rusk,90.26,154.22,70.31,,,Single-ply,SBD,M
Boys,99.79,DQ,Carter Shelton III,Longview Spring Hill,95.07,,,,,Single-ply,SBD,M
Boys,99.79,DQ,Josh Cox,Jefferson,92.99,,,,,Single-ply,SBD,M
Boys,99.79,DQ,Cole Harwell,Hawkins,94.89,,,,,Single-ply,SBD,M
Boys,109.77,1,Chris Bloyd,White Oak,106.96,272.16,149.69,235.87,657.71,Single-ply,SBD,M
Boys,109.77,2,Zack McGuire,Ore City,100.61,249.48,163.29,226.8,639.57,Single-ply,SBD,M
Boys,109.77,3,Stacey Nelson,Longview,107.86,247.21,117.93,238.14,603.28,Single-ply,SBD,M
Boys,109.77,4,Reece Clark,Troup,104.69,247.21,122.47,217.72,587.4,Single-ply,SBD,M
Boys,109.77,5,Julian Oliver,Marshall,108.95,242.67,113.4,215.46,571.53,Single-ply,SBD,M
Boys,109.77,6,Brandon Galindo,Elysian Fields,106.14,238.14,124.74,183.7,546.58,Single-ply,SBD,M
Boys,109.77,7,Brandon Gann,Gladewater Sabine,103.96,204.12,117.93,213.19,535.24,Single-ply,SBD,M
Boys,109.77,8,Kris Kelley,Big Sandy,104.78,204.12,124.74,192.78,521.63,Single-ply,SBD,M
Boys,109.77,9,Devin Walters,Hawkins,104.42,199.58,102.06,204.12,505.76,Single-ply,SBD,M
Boys,109.77,10,Raini Dorman,Henderson,107.59,183.7,92.99,183.7,460.4,Single-ply,SBD,M
Boys,109.77,11,Luke Rice,Elysian Fields,103.78,161.03,108.86,170.1,439.98,Single-ply,SBD,M
Boys,109.77,12,Marvin Cook,Gladewater Union Grove,107.86,158.76,113.4,158.76,430.91,Single-ply,SBD,M
Boys,124.74,DQ,Richard Gallegos,Longview Spring Hill,109.95,199.58,106.59,,,Single-ply,SBD,M
Boys,124.74,1,Antonio Washington,Marshall,116.12,258.55,142.88,265.35,666.78,Single-ply,SBD,M
Boys,124.74,2,Trey Potter,Ore City,114.03,226.8,147.42,208.65,582.87,Single-ply,SBD,M
Boys,124.74,3,Weston Thomas,Henderson,113.76,226.8,142.88,208.65,578.33,Single-ply,SBD,M
Boys,124.74,4,Hunter Hicks,Longview Spring Hill,120.93,240.4,131.54,197.31,569.26,Single-ply,SBD,M
Boys,124.74,5,Trenton Thomas,Henderson,116.48,240.4,111.13,185.97,537.51,Single-ply,SBD,M
Boys,124.74,6,Morgan Clark,Gladewater Union Grove,112.67,201.85,95.25,201.85,498.95,Single-ply,SBD,M
Boys,124.74,7,Quincy Spells,Texarkana Pleasant Grove,120.47,213.19,113.4,149.69,476.27,Single-ply,SBD,M
Boys,124.74,8,Brenton Isliam,Longview Spring Hill,118.3,188.24,104.33,176.9,469.47,Single-ply,SBD,M
Boys,124.74,9,TreJon Blake,Tyler,120.2,195.04,99.79,172.37,467.2,Single-ply,SBD,M
Boys,124.74,10,Isiaha Burgess,Tyler,120.2,158.76,90.72,170.1,419.57,Single-ply,SBD,M
Boys,124.74,DQ,James Carpenter,Jefferson,112.76,204.12,122.47,,,Single-ply,SBD,M
Boys,124.74,DQ,Tarique Bolding,Texarkana Pleasant Grove,112.04,226.8,,,,Single-ply,SBD,M
Boys,124.74+,1,Zack Watson,Ore City,163.47,294.84,142.88,226.8,664.51,Single-ply,SBD,M
Boys,124.74+,2,Corey Brister,New London West Rusk,125.37,249.48,147.42,249.48,646.37,Single-ply,SBD,M
Boys,124.74+,3,Admad Turner,Longview,151.86,238.14,142.88,258.55,639.57,Single-ply,SBD,M
Boys,124.74+,4,Hunter Fountain,Elysian Fields,151.41,276.69,156.49,204.12,637.3,Single-ply,SBD,M
Boys,124.74+,5,Cj Powell,Marshall,139.98,267.62,127.01,226.8,621.42,Single-ply,SBD,M
Boys,124.74+,6,Colby Harris,Tyler,148.23,254.01,138.35,204.12,596.47,Single-ply,SBD,M
Boys,124.74+,7,Jordan Jones,Marshall,140.7,249.48,122.47,222.26,594.21,Single-ply,SBD,M
Boys,124.74+,8,Dre Tennison,Gladewater,145.42,242.67,124.74,215.46,582.87,Single-ply,SBD,M
Boys,124.74+,9,Lyle Owens,White Oak,135.35,224.53,156.49,181.44,562.45,Single-ply,SBD,M
Boys,124.74+,10,Scott Sparks,Longview Spring Hill,143.34,185.97,138.35,188.24,512.56,Single-ply,SBD,M
Boys,124.74+,11,Colton Claudler,Longview Spring Hill,126.28,185.97,111.13,195.04,492.15,Single-ply,SBD,M
Boys,124.74+,12,Mose Jefferey,Longview Pine Tree,129.82,204.12,88.45,199.58,492.15,Single-ply,SBD,M
Boys,124.74+,13,Caleb Ninemire,Beckville,125.74,192.78,102.06,172.37,467.2,Single-ply,SBD,M
Boys,124.74+,14,Nick Gavriel,Texarkana Pleasant Grove,133.27,170.1,102.06,192.78,464.93,Single-ply,SBD,M
Boys,124.74+,DQ,Mailz Clark,New London West Rusk,126.73,210.92,,,,Single-ply,SBD,M
Boys,124.74+,DQ,Ryan Cox,Jefferson,144.33,188.24,,,,Single-ply,SBD,M
