Name,WeightClassKg,Division,Sex,Best3SquatKg,Best3BenchKg,Best3DeadliftKg,TotalKg,Place,Event,Equipment
Ivallisse Zima,55.5,Novice,F,113.4,65.77,147.42,326.59,1,SBD,Single-ply
W. Giesy,63,Novice,F,104.33,61.24,124.74,290.3,2,SBD,Single-ply
K. Tester,75,Novice,F,147.42,74.84,142.88,365.14,3,SBD,Single-ply
K. Folds,75,Novice,F,113.4,56.7,149.69,319.78,4,SBD,Single-ply
Robin Black,55.5,Open,F,147.42,58.97,145.15,351.53,5,SBD,Single-ply
JJ Rojas,,Teen,M,142.88,86.18,151.95,381.02,1,SBD,Single-ply
H. Wong,,Teen,M,233.6,129.27,229.06,591.94,2,SBD,Single-ply
E. Wolinski,,Teen,M,170.1,124.74,215.46,510.29,3,SBD,Single-ply
S. Lockhart,,Teen,M,138.35,99.79,149.69,387.82,4,SBD,Single-ply
Moses Battles,,Masters 40-49,M,362.87,215.46,294.84,873.17,1,SBD,Single-ply
E. Garcia,,Masters 40-49,M,249.48,156.49,254.01,659.98,2,SBD,Single-ply
L. Perez #1,75,Masters 40-49,M,185.97,136.08,204.12,526.17,3,SBD,Single-ply
F. Flack,,Masters 40-49,M,256.28,192.78,226.8,675.85,4,SBD,Single-ply
D. Hunt,,Masters 40-49,M,210.92,120.2,238.14,569.26,5,SBD,Single-ply
N. Polatz,,Masters 40-49,M,185.97,124.74,208.65,519.36,6,SBD,Single-ply
D. Brown,,Masters 40-49,M,204.12,108.86,206.38,519.36,7,SBD,Single-ply
R. Blankenship,,Masters 40-49,M,217.72,161.03,217.72,596.47,8,SBD,Single-ply
R. Umberger,,Masters 40-49,M,142.88,74.84,154.22,371.95,9,SBD,Single-ply
R. Bolster,,Masters 40-49,M,217.72,106.59,208.65,532.97,10,SBD,Single-ply
C. Blevins,,Masters 50-59,M,199.58,115.67,210.92,526.17,1,SBD,Single-ply
L. Meyers,,Masters 50-59,M,181.44,115.67,204.12,501.22,2,SBD,Single-ply
J. Best,,Masters 50-59,M,158.76,102.06,181.44,442.25,3,SBD,Single-ply
Bill Remley,90,Masters 60-69,M,204.12,131.54,204.12,539.78,1,SBD,Single-ply
H. Carter,,Masters 60-69,M,147.42,117.93,165.56,430.91,2,SBD,Single-ply
Ken Snell,52,Open,M,158.76,104.33,201.85,464.93,1,SBD,Single-ply
Clarence Fielder,56,Open,M,190.51,142.88,226.8,560.19,1,SBD,Single-ply
Steve Soukup,60,Open,M,158.76,111.13,138.35,408.23,1,SBD,Single-ply
R. Umberger,60,Open,M,142.88,74.84,154.22,371.95,2,SBD,Single-ply
J. McGowan,67.5,Open,M,176.9,102.06,197.31,476.27,1,SBD,Single-ply
S. McMillian,75,Open,M,235.87,117.93,226.8,580.6,1,SBD,Single-ply
M. McCloud,75,Open,M,195.04,149.69,226.8,571.53,2,SBD,Single-ply
L. Perez #1,75,Open,M,185.97,136.08,204.12,526.17,3,SBD,Single-ply
D. Davis,82.5,Open,M,249.48,147.42,254.01,650.91,1,SBD,Single-ply
R. Lansky,82.5,Open,M,244.94,124.74,242.67,612.35,2,SBD,Single-ply
M. Krieger,90,Open,M,326.59,149.69,283.5,759.77,1,SBD,Single-ply
M. Martinez,90,Open,M,294.84,120.2,272.16,687.19,2,SBD,Single-ply
A. Velazquez,90,Open,M,272.16,165.56,249.48,687.19,3,SBD,Single-ply
J. Steppan,90,Open,M,238.14,136.08,265.35,639.57,4,SBD,Single-ply
E. Kay,100,Open,M,285.76,145.15,294.84,725.75,1,SBD,Single-ply
M. Mattison,100,Open,M,263.08,163.29,235.87,662.25,2,SBD,Single-ply
P. Joseph,100,Open,M,251.74,149.69,233.6,635.03,3,SBD,Single-ply
D. Arthur,100,Open,M,231.33,156.49,208.65,596.47,4,SBD,Single-ply
H. McInenly,110,Open,M,233.6,151.95,233.6,619.15,1,SBD,Single-ply
Tom Mahoney,125,Open,M,306.18,197.31,297.1,800.59,1,SBD,Single-ply
A. Chappell,125,Open,M,294.84,192.78,263.08,750.7,2,SBD,Single-ply
Dan Crowley,125,Open,M,24.95,231.33,65.77,322.05,3,SBD,Single-ply
Moses Battles,125+,Open,M,362.87,215.46,294.84,873.17,1,SBD,Single-ply
P. Pope,67.5,Novice,M,151.95,108.86,154.22,415.04,1,SBD,Single-ply
D. Hamilton,75,Novice,M,195.04,136.08,199.58,530.7,1,SBD,Single-ply
C. Fountain,75,Novice,M,190.51,115.67,201.85,508.02,2,SBD,Single-ply
B. Jansen,75,Novice,M,181.44,117.93,204.12,503.49,3,SBD,Single-ply
P. Combee,75,Novice,M,190.51,131.54,172.37,494.42,4,SBD,Single-ply
Wayne Conoly,82.5,Novice,M,226.8,183.71,258.55,669.05,1,SBD,Single-ply
J. Murrell,82.5,Novice,M,249.48,154.22,231.33,635.03,2,SBD,Single-ply
W. Sword,82.5,Novice,M,226.8,136.08,226.8,589.67,3,SBD,Single-ply
P. Ciola,82.5,Novice,M,215.46,127.01,238.14,580.6,4,SBD,Single-ply
G. Santos,82.5,Novice,M,208.65,117.93,226.8,553.38,5,SBD,Single-ply
G. Sihler,82.5,Novice,M,190.51,113.4,204.12,508.02,6,SBD,Single-ply
P. Flamm,82.5,Novice,M,124.74,102.06,183.71,410.5,7,SBD,Single-ply
J. Flamm,82.5,Novice,M,124.74,102.06,165.56,392.36,8,SBD,Single-ply
T. Partridge,90,Novice,M,260.82,163.29,249.48,673.59,1,SBD,Single-ply
A. Strausi,90,Novice,M,204.12,149.69,251.74,605.55,2,SBD,Single-ply
R. Sliwa,90,Novice,M,185.97,158.76,231.33,576.06,3,SBD,Single-ply
B. Brown,90,Novice,M,226.8,111.13,213.19,551.12,4,SBD,Single-ply
J. Jacobs,100,Novice,M,272.16,204.12,258.55,734.82,1,SBD,Single-ply
B. Beekiey,100,Novice,M,283.5,151.95,249.48,684.93,2,SBD,Single-ply
P. Wallis,100,Novice,M,217.72,122.47,231.33,571.53,3,SBD,Single-ply
K. Stover,100,Novice,M,199.58,154.22,213.19,566.99,4,SBD,Single-ply
A. Gemmiti,110,Novice,M,272.16,192.78,238.14,703.07,1,SBD,Single-ply
E. Crocks,110,Novice,M,226.8,140.61,272.16,639.57,2,SBD,Single-ply
F. Gibbs,125,Novice,M,197.31,185.97,249.48,632.76,1,SBD,Single-ply
B. Garst,125+,Novice,M,195.04,185.97,229.06,610.08,1,SBD,Single-ply
